<svg width="380" height="64" viewBox="0 0 380 64" fill="none" xmlns="http://www.w3.org/2000/svg">
<g id="&#208;&#154;&#208;&#189;&#208;&#190;&#208;&#191;&#208;&#186;&#208;&#176;">
<rect width="380" height="64" rx="4" fill="#F36223"/>
<path id="&#208;&#148;&#208;&#190;&#208;&#177;&#208;&#176;&#208;&#178;&#208;&#184;&#209;&#130;&#209;&#140; &#208;&#178; &#208;&#186;&#208;&#190;&#209;&#128;&#208;&#183;&#208;&#184;&#208;&#189;&#209;&#131;" d="M92.5114 42.5227V37.4375H93.4489C93.7708 37.1439 94.0739 36.7296 94.358 36.1946C94.6468 35.6548 94.8906 34.9351 95.0895 34.0355C95.2931 33.1312 95.428 31.983 95.4943 30.5909L95.8068 24.4545H104.443V37.4375H106.119V42.4943H104.443V39H94.1875V42.5227H92.5114ZM95.5511 37.4375H102.767V26.017H97.3977L97.1705 30.5909C97.1136 31.6515 97.0142 32.6127 96.8722 33.4744C96.7301 34.3314 96.5478 35.0914 96.3253 35.7543C96.1027 36.4124 95.8447 36.9735 95.5511 37.4375ZM112.985 39.2273C112.001 39.2273 111.136 38.9929 110.393 38.5241C109.654 38.0554 109.077 37.3996 108.66 36.5568C108.248 35.714 108.042 34.7292 108.042 33.6023C108.042 32.4659 108.248 31.474 108.66 30.6264C109.077 29.7789 109.654 29.1207 110.393 28.652C111.136 28.1832 112.001 27.9489 112.985 27.9489C113.97 27.9489 114.832 28.1832 115.571 28.652C116.314 29.1207 116.892 29.7789 117.304 30.6264C117.72 31.474 117.929 32.4659 117.929 33.6023C117.929 34.7292 117.72 35.714 117.304 36.5568C116.892 37.3996 116.314 38.0554 115.571 38.5241C114.832 38.9929 113.97 39.2273 112.985 39.2273ZM112.985 37.7216C113.734 37.7216 114.349 37.5298 114.832 37.1463C115.315 36.7628 115.672 36.2585 115.904 35.6335C116.136 35.0085 116.252 34.3314 116.252 33.6023C116.252 32.8731 116.136 32.1937 115.904 31.5639C115.672 30.9342 115.315 30.4252 114.832 30.0369C114.349 29.6487 113.734 29.4545 112.985 29.4545C112.237 29.4545 111.622 29.6487 111.139 30.0369C110.656 30.4252 110.298 30.9342 110.066 31.5639C109.834 32.1937 109.718 32.8731 109.718 33.6023C109.718 34.3314 109.834 35.0085 110.066 35.6335C110.298 36.2585 110.656 36.7628 111.139 37.1463C111.622 37.5298 112.237 37.7216 112.985 37.7216ZM128.584 24L129.436 25.0227C129.105 25.3447 128.721 25.5696 128.286 25.6974C127.85 25.8253 127.357 25.9034 126.808 25.9318C126.259 25.9602 125.648 25.9886 124.976 26.017C124.218 26.0455 123.591 26.2301 123.094 26.571C122.597 26.9119 122.213 27.4044 121.943 28.0483C121.673 28.6922 121.5 29.483 121.425 30.4205H121.567C121.936 29.7386 122.447 29.2367 123.101 28.9148C123.754 28.5928 124.455 28.4318 125.203 28.4318C126.055 28.4318 126.822 28.6307 127.504 29.0284C128.186 29.4261 128.726 30.0156 129.124 30.7969C129.521 31.5781 129.72 32.5417 129.72 33.6875C129.72 34.8286 129.517 35.8134 129.109 36.642C128.707 37.4706 128.141 38.1098 127.412 38.5597C126.688 39.0047 125.838 39.2273 124.862 39.2273C123.887 39.2273 123.032 38.9976 122.298 38.5384C121.564 38.0743 120.994 37.3878 120.587 36.4787C120.179 35.5649 119.976 34.4356 119.976 33.0909V31.9261C119.976 29.4972 120.388 27.6553 121.212 26.4006C122.04 25.1458 123.286 24.4972 124.947 24.4545C125.535 24.4356 126.058 24.4309 126.517 24.4403C126.976 24.4498 127.376 24.4285 127.717 24.3764C128.058 24.3243 128.347 24.1989 128.584 24ZM124.862 37.7216C125.52 37.7216 126.086 37.5559 126.56 37.2244C127.038 36.893 127.405 36.4266 127.661 35.8253C127.916 35.2192 128.044 34.5066 128.044 33.6875C128.044 32.892 127.914 32.215 127.653 31.6562C127.398 31.0975 127.031 30.6714 126.553 30.3778C126.074 30.0843 125.501 29.9375 124.834 29.9375C124.346 29.9375 123.908 30.0204 123.52 30.1861C123.132 30.3518 122.8 30.5956 122.526 30.9176C122.251 31.2396 122.038 31.6326 121.886 32.0966C121.74 32.5606 121.661 33.0909 121.652 33.6875C121.652 34.9091 121.938 35.8868 122.511 36.6207C123.084 37.3546 123.868 37.7216 124.862 37.7216ZM135.494 39.2557C134.803 39.2557 134.176 39.1255 133.612 38.8651C133.049 38.5999 132.601 38.2188 132.27 37.7216C131.938 37.2197 131.773 36.6136 131.773 35.9034C131.773 35.2784 131.896 34.7718 132.142 34.3835C132.388 33.9905 132.717 33.6828 133.129 33.4602C133.541 33.2377 133.996 33.072 134.493 32.9631C134.995 32.8494 135.499 32.7595 136.006 32.6932C136.669 32.608 137.206 32.544 137.618 32.5014C138.035 32.4541 138.338 32.3759 138.527 32.267C138.721 32.1581 138.818 31.9687 138.818 31.6989V31.642C138.818 30.9413 138.626 30.3968 138.243 30.0085C137.864 29.6203 137.289 29.4261 136.517 29.4261C135.717 29.4261 135.089 29.6013 134.635 29.9517C134.18 30.3021 133.861 30.6761 133.676 31.0739L132.085 30.5057C132.369 29.8428 132.748 29.3267 133.222 28.9574C133.7 28.5833 134.221 28.3229 134.784 28.1761C135.352 28.0246 135.911 27.9489 136.46 27.9489C136.811 27.9489 137.213 27.9915 137.668 28.0767C138.127 28.1572 138.57 28.3253 138.996 28.581C139.427 28.8366 139.784 29.2225 140.068 29.7386C140.352 30.2547 140.494 30.946 140.494 31.8125V39H138.818V37.5227H138.733C138.619 37.7595 138.43 38.0128 138.165 38.2827C137.9 38.5526 137.547 38.7822 137.107 38.9716C136.666 39.161 136.129 39.2557 135.494 39.2557ZM135.75 37.75C136.413 37.75 136.972 37.6198 137.426 37.3594C137.885 37.099 138.231 36.7628 138.463 36.3509C138.7 35.9389 138.818 35.5057 138.818 35.0511V33.517C138.747 33.6023 138.591 33.6804 138.349 33.7514C138.113 33.8177 137.838 33.8769 137.526 33.929C137.218 33.9763 136.917 34.0189 136.624 34.0568C136.335 34.09 136.1 34.1184 135.92 34.142C135.485 34.1989 135.078 34.2912 134.699 34.419C134.325 34.5421 134.022 34.7292 133.79 34.9801C133.563 35.2263 133.449 35.5625 133.449 35.9886C133.449 36.571 133.664 37.0114 134.095 37.3097C134.531 37.6032 135.082 37.75 135.75 37.75ZM143.554 39V28.0909H148.014C149.188 28.0909 150.121 28.3561 150.812 28.8864C151.503 29.4167 151.849 30.1174 151.849 30.9886C151.849 31.6515 151.653 32.1652 151.26 32.5298C150.867 32.8897 150.362 33.1335 149.747 33.2614C150.149 33.3182 150.54 33.4602 150.919 33.6875C151.302 33.9148 151.619 34.2273 151.87 34.625C152.121 35.018 152.247 35.5009 152.247 36.0739C152.247 36.6326 152.105 37.1321 151.821 37.5724C151.537 38.0128 151.129 38.3608 150.599 38.6165C150.069 38.8722 149.434 39 148.696 39H143.554ZM145.145 37.4659H148.696C149.273 37.4659 149.725 37.3286 150.052 37.054C150.379 36.7794 150.542 36.4053 150.542 35.9318C150.542 35.3684 150.379 34.9257 150.052 34.6037C149.725 34.277 149.273 34.1136 148.696 34.1136H145.145V37.4659ZM145.145 32.6648H148.014C148.464 32.6648 148.85 32.6032 149.172 32.4801C149.493 32.3523 149.74 32.1723 149.91 31.9403C150.085 31.7036 150.173 31.4242 150.173 31.1023C150.173 30.643 149.981 30.2831 149.598 30.0227C149.214 29.7576 148.686 29.625 148.014 29.625H145.145V32.6648ZM156.46 36.5284L161.716 28.0909H163.648V39H161.972V30.5625L156.744 39H154.784V28.0909H156.46V36.5284ZM165.233 29.6534V28.0909H174.097V29.6534H170.517V39H168.841V29.6534H165.233ZM177.991 32.0398H181.116C182.394 32.0398 183.372 32.3641 184.049 33.0128C184.726 33.6615 185.065 34.483 185.065 35.4773C185.065 36.1307 184.913 36.7249 184.61 37.2599C184.307 37.7902 183.862 38.214 183.275 38.5312C182.688 38.8438 181.968 39 181.116 39H176.542V28.0909H178.218V37.4375H181.116C181.779 37.4375 182.323 37.2623 182.749 36.9119C183.175 36.5616 183.388 36.1117 183.388 35.5625C183.388 34.9848 183.175 34.5137 182.749 34.1491C182.323 33.7846 181.779 33.6023 181.116 33.6023H177.991V32.0398ZM193.241 39V28.0909H197.701C198.876 28.0909 199.808 28.3561 200.5 28.8864C201.191 29.4167 201.537 30.1174 201.537 30.9886C201.537 31.6515 201.34 32.1652 200.947 32.5298C200.554 32.8897 200.05 33.1335 199.434 33.2614C199.837 33.3182 200.227 33.4602 200.606 33.6875C200.99 33.9148 201.307 34.2273 201.558 34.625C201.809 35.018 201.934 35.5009 201.934 36.0739C201.934 36.6326 201.792 37.1321 201.508 37.5724C201.224 38.0128 200.817 38.3608 200.287 38.6165C199.756 38.8722 199.122 39 198.383 39H193.241ZM194.832 37.4659H198.383C198.961 37.4659 199.413 37.3286 199.74 37.054C200.066 36.7794 200.23 36.4053 200.23 35.9318C200.23 35.3684 200.066 34.9257 199.74 34.6037C199.413 34.277 198.961 34.1136 198.383 34.1136H194.832V37.4659ZM194.832 32.6648H197.701C198.151 32.6648 198.537 32.6032 198.859 32.4801C199.181 32.3523 199.427 32.1723 199.598 31.9403C199.773 31.7036 199.86 31.4242 199.86 31.1023C199.86 30.643 199.669 30.2831 199.285 30.0227C198.902 29.7576 198.374 29.625 197.701 29.625H194.832V32.6648ZM210.097 39V28.0909H211.773V32.8352H212.881L216.801 28.0909H218.96L214.557 33.3466L219.017 39H216.858L213.278 34.3977H211.773V39H210.097ZM224.821 39.2273C223.837 39.2273 222.972 38.9929 222.229 38.5241C221.49 38.0554 220.913 37.3996 220.496 36.5568C220.084 35.714 219.878 34.7292 219.878 33.6023C219.878 32.4659 220.084 31.474 220.496 30.6264C220.913 29.7789 221.49 29.1207 222.229 28.652C222.972 28.1832 223.837 27.9489 224.821 27.9489C225.806 27.9489 226.668 28.1832 227.407 28.652C228.15 29.1207 228.728 29.7789 229.14 30.6264C229.556 31.474 229.765 32.4659 229.765 33.6023C229.765 34.7292 229.556 35.714 229.14 36.5568C228.728 37.3996 228.15 38.0554 227.407 38.5241C226.668 38.9929 225.806 39.2273 224.821 39.2273ZM224.821 37.7216C225.569 37.7216 226.185 37.5298 226.668 37.1463C227.151 36.7628 227.508 36.2585 227.74 35.6335C227.972 35.0085 228.088 34.3314 228.088 33.6023C228.088 32.8731 227.972 32.1937 227.74 31.5639C227.508 30.9342 227.151 30.4252 226.668 30.0369C226.185 29.6487 225.569 29.4545 224.821 29.4545C224.073 29.4545 223.458 29.6487 222.975 30.0369C222.492 30.4252 222.134 30.9342 221.902 31.5639C221.67 32.1937 221.554 32.8731 221.554 33.6023C221.554 34.3314 221.67 35.0085 221.902 35.6335C222.134 36.2585 222.492 36.7628 222.975 37.1463C223.458 37.5298 224.073 37.7216 224.821 37.7216ZM232.323 43.0909V28.0909H233.942V29.8239H234.141C234.264 29.6345 234.435 29.393 234.653 29.0994C234.875 28.8011 235.192 28.536 235.604 28.304C236.021 28.0672 236.585 27.9489 237.295 27.9489C238.213 27.9489 239.023 28.1785 239.724 28.6378C240.424 29.0971 240.971 29.7481 241.364 30.5909C241.757 31.4337 241.954 32.428 241.954 33.5739C241.954 34.7292 241.757 35.7306 241.364 36.5781C240.971 37.4209 240.427 38.0743 239.731 38.5384C239.035 38.9976 238.232 39.2273 237.323 39.2273C236.622 39.2273 236.061 39.1113 235.64 38.8793C235.219 38.6425 234.894 38.375 234.667 38.0767C234.44 37.7737 234.264 37.5227 234.141 37.3239H233.999V43.0909H232.323ZM233.971 33.5455C233.971 34.3693 234.092 35.0961 234.333 35.7259C234.575 36.3509 234.927 36.8409 235.391 37.196C235.855 37.5464 236.424 37.7216 237.096 37.7216C237.797 37.7216 238.381 37.5369 238.85 37.1676C239.324 36.7936 239.679 36.2917 239.915 35.6619C240.157 35.0275 240.278 34.322 240.278 33.5455C240.278 32.7784 240.159 32.0871 239.923 31.4716C239.691 30.8513 239.338 30.3613 238.864 30.0014C238.396 29.6368 237.806 29.4545 237.096 29.4545C236.414 29.4545 235.841 29.6274 235.377 29.973C234.913 30.3139 234.563 30.7921 234.326 31.4077C234.089 32.0185 233.971 32.7311 233.971 33.5455ZM243.829 36.2159H245.619C245.656 36.7083 245.879 37.0824 246.286 37.3381C246.698 37.5938 247.233 37.7216 247.891 37.7216C248.564 37.7216 249.139 37.5843 249.617 37.3097C250.095 37.0303 250.335 36.5805 250.335 35.9602C250.335 35.5956 250.245 35.2784 250.065 35.0085C249.885 34.7339 249.631 34.5208 249.305 34.3693C248.978 34.2178 248.592 34.142 248.147 34.142H246.272V32.6364H248.147C248.815 32.6364 249.307 32.4848 249.624 32.1818C249.946 31.8788 250.107 31.5 250.107 31.0455C250.107 30.5578 249.934 30.1671 249.589 29.8736C249.243 29.5753 248.753 29.4261 248.119 29.4261C247.479 29.4261 246.947 29.5705 246.521 29.8594C246.094 30.1435 245.87 30.5104 245.846 30.9602H244.085C244.103 30.3731 244.283 29.8546 244.624 29.4048C244.965 28.9503 245.429 28.5952 246.016 28.3395C246.603 28.0791 247.276 27.9489 248.033 27.9489C248.8 27.9489 249.466 28.0838 250.029 28.3537C250.597 28.6188 251.035 28.9811 251.343 29.4403C251.656 29.8949 251.812 30.411 251.812 30.9886C251.812 31.6042 251.639 32.1013 251.293 32.4801C250.948 32.8589 250.514 33.1288 249.994 33.2898V33.4034C250.406 33.4318 250.763 33.5644 251.066 33.8011C251.374 34.0331 251.613 34.3385 251.783 34.7173C251.954 35.0914 252.039 35.5057 252.039 35.9602C252.039 36.6231 251.862 37.2008 251.506 37.6932C251.151 38.1809 250.664 38.5597 250.043 38.8295C249.423 39.0947 248.715 39.2273 247.92 39.2273C247.148 39.2273 246.457 39.1018 245.846 38.8509C245.235 38.5952 244.75 38.2424 244.39 37.7926C244.035 37.3381 243.848 36.8125 243.829 36.2159ZM256.07 36.5284L261.325 28.0909H263.257V39H261.581V30.5625L256.354 39H254.393V28.0909H256.07V36.5284ZM273.628 32.7784V34.3409H267.605V32.7784H273.628ZM268.003 28.0909V39H266.327V28.0909H268.003ZM274.907 28.0909V39H273.23V28.0909H274.907ZM278.657 43.0909C278.373 43.0909 278.119 43.0672 277.897 43.0199C277.674 42.9773 277.52 42.9347 277.435 42.892L277.861 41.4148C278.268 41.5189 278.628 41.5568 278.941 41.5284C279.253 41.5 279.53 41.3603 279.772 41.1094C280.018 40.8632 280.243 40.4631 280.446 39.9091L280.759 39.0568L276.725 28.0909H278.543L281.554 36.7841H281.668L284.679 28.0909H286.498L281.867 40.5909C281.658 41.1544 281.4 41.6207 281.093 41.9901C280.785 42.3641 280.427 42.6411 280.02 42.821C279.618 43.0009 279.163 43.0909 278.657 43.0909Z" fill="white"/>
</g>
</svg>
